{
  "id": "q1",
  "title": "La bière perdue",
  "state": {
    "beer": 0
  },
  "chapters": [
    {
      "title": "Allez chercher la bière perdue",
      "text": "Chercher les 12 bouteilles de bières que le PNJ soiffard a laissé dans la pièce d'à côté.\nBouteilles de bière trouvées : {{ beer }}/12"
    }, {
      "ref": "xxx",
      "title": "Mission accomplie",
      "text": "Merci pour la bière."
    }
  ]
}
