{
  "type": "placeable",
  "name": "Chevalet de torture",
  "desc": [
    "Une sorte de cadre en bois ou l'on attachait les prisonniers par les chevilles et les poignets à des menottes de fer reliées à des poulies. Au moyen d'une roue qu'il tourne, le tortionnaire peut écarteler son prisonnier de manière très progressive."
  ],
  "tag": "",
  "inventory": false
}
