{
  "type": "placeable",
  "name": "Tonneau",
  "desc": [
    "Le tonneau est fabriqué à partir de planches de bois de chêne (connu pour sa résistance et sa capacité à étancher les liquides), étroitement liées et solidement fixées pour former un cylindre.",
    "Des cerclages de fer fixés en place par des clous, entourent le cylindre en bois pour le renforcer et le maintenir fermement assemblé.",
    "Posé debout et muni d'un couvercle est amovible, ce genre de tonneau peut donc contenir autre chose que des liquides."
  ],
  "tag": "",
  "inventory": true
}