{
  "type": "placeable",
  "name": "Armoire",
  "desc": [
    "Meuble utilisé pour le rangement de vêtements, de textiles et des effets personnels. Cette armoire est assez grande pour contenir des étagère, des tiroirs et des compartiment pour ranger les chaussures."
  ],
  "tag": "",
  "inventory": true
}