{
  "type": "placeable",
  "name": "Puits",
  "desc": [
    "Un puits offre un approvisionnement en eau naturelle pour une utilisation domestique, l'irrigation des plantes ou d'autres besoins du jardin.",
    "Le puits est construit en pierre, avec un diamètre suffisamment large pour permettre l'accès à l'eau. Il est souvent surmonté d'un couvercle ou d'un toit pour le protéger des éléments extérieurs tels que les feuilles, les débris ou la pluie."
  ],
  "tag": "",
  "inventory": false
}
