{
  "ddmagic": {
    "spells": {
      "header": [
        "Sort",
        "Prêt",
        "Niv",
        "Cible",
        "Attribut"
      ],
      "valTarget": {
        "hostile": "Ennemi",
        "friend": "Allié",
        "self": "Soi-même",
        "special": "Spécial"
      },
      "valAttribute": {
        "ritual": "Rituel",
        "concentration": "Focus"
      }
    },
    "symbolOfMagic": "🪄",
    "error": {
      "missingSpellScript": "Script du sort {{ spell }} non disponible."
    },
    "colorOfMagic": "[#a0f]",
    "failure": {
      "badSpellName": "Sort inconnu ou mal formulé : {{ spell }}.",
      "badTarget": "Cible invalide ({{ target }}) pour ce sort \"{{ spell }}\"",
      "unavailable": "Ce sort : \"{{ spell }}\", n'est pas disponible actuellement."
    },
    "info": {
      "checkSpells": "Vérifiez votre livre de sort."
    },
    "castSpell": {
      "you": {
        "describe": "$t(ddmagic.symbolOfMagic)$t(ddmagic.colorOfMagic) Vous lancez le sort \"{{ spell }}\" (niveau {{ level }})",
        "onActor": "$t(ddmagic.castSpell.you.describe) sur {{ target }}.",
        "onSelf": "$t(ddmagic.castSpell.you.describe)."
      },
      "adv": {
        "describe": "$t(ddmagic.symbolOfMagic)$t(ddmagic.colorOfMagic) {{ target }} lance le sort \"{{ spell }}\"",
        "onMe": "$t(ddmagic.castSpell.adv.describe) sur vous.",
        "onSelf": "$t(ddmagic.castSpell.adv.describe)."
      },
      "room": {
        "onActor": "$t(ddmagic.castSpell.adv.describe) sur {{ target }}.",
        "onSelf": "$t(ddmagic.castSpell.adv.describe)."
      }
    },
    "rangedAttack": {
      "you": {
        "describe": "Vous tentez une attaque à distance sur {{ target }}",
        "action": "$t(ddmagic.rangedAttack.you.describe), et vous touchez votre cible.",
        "failure": "$t(ddmagic.rangedAttack.you.describe), mais vous ratez votre cible."
      },
      "adv": {
        "describe": "{{ caster }} effectue une attaque à distance sur vous",
        "warn": "$t(ddmagic.rangedAttack.room.describe), et vous touche.",
        "info": "$t(ddmagic.rangedAttack.room.describe), mais vous manque."
      },
      "room": {
        "describe": "{{ caster }} effectue une attaque à distance sur {{ target }}",
        "hit": "$t(ddmagic.rangedAttack.room.describe), et touche sa cible.",
        "miss": "$t(ddmagic.rangedAttack.room.describe), mais manque sa cible."
      }
    }
  }
}