{
  "name": "acquired",
  "description": "Triggered when an item is being acquired by an entity",
  "type": "object",
  "properties": {
    "engine": {
      "type": "Engine",
      "description": "Instance of the game engine"
    },
    "self": {
      "type": "object",
      "description": "Instance of the item that triggered the event"
    },
    "interactor": {
      "type": "object",
      "description": "Instance of the entity who has just acquired the item"
    }
  }
}
