{
  "name": "despawn",
  "description": "Triggered when an entity despawns",
  "type": "object",
  "properties": {
    "engine": {
      "type": "Engine",
      "description": "Instance of the game engine"
    },
    "self": {
      "type": "object",
      "description": "Instance of the entity that triggered the event"
    },
    "location": {
      "type": "object",
      "description": "Last known location of the despawning entity"
    }
  }
}
