{
  "commands": {
    "char": "Gestion des personnages (création/suppression/sélection).",
    "commands": "Affiche la liste des commandes disponibles, avec un bref descriptif.",
    "echo": "Affiche ce qui a été transmis en paramètre de cette commande.",
    "enter": "Intègre le personnage choisis, dans le jeu. A ce stade les commande de jeu deviennent disponible.",
    "help": "Affiche le guide, ou l'aide concernant une commandes.",
    "leave": "Quitte une partie que l'on a rejoin avec la commande ENTER.",
    "passwd": "Permet de changer de mot de passe. Attention, commande sensible.",
    "quit": "Se déconnecter du serveur (la progression du personnage est sauvegardée).",
    "user": "Gestion des utilisateurs (nécessite des droits administratifs). Voir la liste des utilisateurs connectés."
  }
}