{
  "type": "item",
  "name": "Clé en argent",
  "desc": [
    "Une petite clé faite d'un matériaux qui semble être de l'argent. Elle ouvre les portes dont la serrure est en argent."
  ],
  "weight": 0.1,
  "tag": "key-silver",
  "stackable": false,
  "inventory": false
}