{
  "neutral": {
    "name": "Neutral",
    "description": "This environment has no noticeable effect"
  },
  "underwater": {
    "name": "Underwater",
    "description": "Non aquatic and non amphibian creatures have decreased movement, and cannot breathe."
  },
  "difficult-terrain": {
    "name": "Difficult terrain",
    "description": "This environment characterizes any type of terrain on which it is difficult to move."
  },
  "windstorm": {
    "name": "Windstorm",
    "description": "An environment in which it is impossible to use ranged weapons due to strong winds that deflect projectiles or interfere with aiming."
  },
  "hazardous": {
    "name": "Hazardous environment",
    "description": "This environment is dangerous enough to cause periodic damage to any unsuited creature."
  }
}