{
  "type": "placeable",
  "name": "Tronc d'arbre",
  "desc": [
    "Le tronc d'un arbre tombé, faisant office d'abris à tout un tas de bestioles, insectes, mousses, champignons..."
  ],
  "tag": "",
  "inventory": false
}
