{
  "type": "placeable",
  "name": "Lutrin",
  "desc": [
    "Un lutrin est un support élégant et fonctionnel conçu pour tenir des livres, des partitions musicales ou d'autres documents. Il est souvent utilisé dans les églises, les temples, les bibliothèques, et les salles de conférence."
  ],
  "tag": "",
  "inventory": true
}
