{
  "type": "placeable",
  "name": "Levier au sol",
  "desc": [
    "Un vieux levier de fer, à moitié enfoui dans la poussière du sol, émerge des ombres. Sa surface est rouillée, comme s'il n'avait pas été touché depuis des siècles."
  ],
  "tag": "",
  "inventory": false
}
