{
  "type": "item",
  "name": "Armure de cuir clouté",
  "desc": [
    "L'armure de cuir clouté est fabriquée à partir de cuir naturel, généralement du cuir de vache ou de cerf, qui est renforcé avec des clous en métal. Cette technique vise à augmenter la résistance du cuir contre les coups et les coupures."
  ],
  "tag": "armor-studded-leather",
  "weight": 0,
  "stackable": false,
  "inventory": false,
  "data": {
    "addv": {
      "blueprint": "arm-studded-leather"
    }
  }
}