{
  "name": "entity.room.enter",
  "description": "Triggered when an entity is moving from room to room. Emitted by Engine._setEntityLocation",
  "type": "object",
  "properties": {
    "engine": {
      "type": "Engine",
      "description": "The instance of the game engine"
    },
    "entity": {
      "type": "object",
      "description": "The instance of the moving entity"
    },
    "from": {
      "type": "object",
      "description": "The room from which the moving entity originates."
    },
    "to": {
      "type": "object",
      "description": "The room where the moving entity goes to"
    }
  }
}