{
  "name": "item.lose",
  "description": "Triggered when an entity loses an item, for the benefit of another entity (actor, or container). Emitted by Engine._setEntityLocation",
  "type": "object",
  "properties": {
    "engine": {
      "type": "Engine",
      "description": "The instance of the game engine"
    },
    "entity": {
      "type": "object",
      "description": "The instance of the item lost by its possessor"
    },
    "lostBy": {
      "type": "object",
      "description": "The instance of the entity who lost this item"
    }
  }
}
