{
  "name": "entity.create",
  "description": "Déclenché lorsqu'une entité est créée. émis par Engine._setEntityLocation",
  "type": "object",
  "properties": {
    "system": {
      "type": "System",
      "description": "Instance du système PLASMUD"
    },
    "engine": {
      "type": "Engine",
      "description": "Instance du moteur de jeu PLASMUD"
    },
    "entity": {
      "type": "object",
      "description": "Instance de l'entité nouvellement créée"
    },
    "location": {
      "type": "object",
      "description": "Localisation de l'entité nouvellement créée"
    }
  }
}