{
  "name": "entity.room.enter",
  "description": "Déclenché lorsqu'une entité se déplace d'une pièce à une autre. émis par Engine._setEntityLocation",
  "type": "object",
  "properties": {
    "system": {
      "type": "System",
      "description": "Instance du système PLASMUD"
    },
    "engine": {
      "type": "Engine",
      "description": "Instance du moteur de jeu PLASMUD"
    },
    "entity": {
      "type": "object",
      "description": "Instance de l'entité qui se déplace"
    },
    "from": {
      "type": "object",
      "description": "Pièce à partir de laquelle, l'entité se déplace"
    },
    "to": {
      "type": "object",
      "description": "Pièce de destination"
    }
  }
}